# Automatically generated on jta host by thresholds.awk based on
# 39 results of 0\.18\.05\.0002 firmware regexp crossed with [1060, 1127] build range
[DaCapo.jython|le]
1000000
[DaCapo.luindex|le]
1000000
[DaCapo.lusearch|le]
1000000
[SciMark.Composite_Score|ge]
0
[SciMark.FFT|ge]
0
[SciMark.LU|ge]
0
[SciMark.Monte_Carlo|ge]
0
[SciMark.SOR|ge]
0
[SciMark.Sparse_matmult|ge]
0
